<svg xmlns="http://www.w3.org/2000/svg" width="72" height="116" viewBox="0 0 72 116">
    <defs>
        <linearGradient id="a" x1="50%" x2="50%" y1="0%" y2="100%">
            <stop offset="0%" stop-color="#C01CF7"/>
            <stop offset="100%" stop-color="#67A9FC"/>
        </linearGradient>
    </defs>
    <g fill="none" fill-rule="evenodd" stroke="url(#a)" stroke-linecap="round" stroke-linejoin="round" stroke-width="2">
        <path d="M2 112.929h67.813V3.693H2z"/>
        <path d="M2 112.929L35.907 91.6V25.02L2 3.692M31.257 51.06v7.25"/>
    </g>
</svg>
