<?xml version="1.0" encoding="UTF-8"?>
<svg xmlns:xlink="http://www.w3.org/1999/xlink" width="130px" height="130px" viewBox="0 0 130 130" version="1.1"
     xmlns="http://www.w3.org/2000/svg">
    <!-- Generator: sketchtool 51.3 (57544) - http://www.bohemiancoding.com/sketch -->
    <title>39F5C439-E432-4C1D-8EDE-B3D4BABC6F9F</title>
    <desc>Created with sketchtool.</desc>
    <defs></defs>
    <g id="Symbols" stroke="none" stroke-width="1" fill="none" fill-rule="evenodd" stroke-linejoin="round">
        <g id="sun" stroke="#000000" stroke-width="2">
            <g id="Group-15" transform="translate(5.000000, 5.000000)">
                <path d="M87.0990497,59.7001989 C87.0990497,74.8321326 74.8318674,87.0993149 59.6999337,87.0993149 C44.568,87.0993149 32.3008177,74.8321326 32.3008177,59.7001989 C32.3008177,44.5676022 44.568,32.3010829 59.6999337,32.3010829 C74.8318674,32.3010829 87.0990497,44.5676022 87.0990497,59.7001989 Z"
                      id="Stroke-1"></path>
                <path d="M59.6998674,0.000331491713 L59.6998674,32.300884" id="Stroke-3"></path>
                <path d="M59.6998674,87.0994475 L59.6998674,119.4" id="Stroke-5"></path>
                <path d="M119.399735,59.7001989 L87.0991823,59.7001989" id="Stroke-7"></path>
                <path d="M32.3006188,59.7001989 L6.62983427e-05,59.7001989" id="Stroke-9"></path>
                <path d="M101.91421,17.4858564 L79.073768,40.3262983" id="Stroke-11"></path>
                <path d="M40.3257017,79.0743646 L17.4859227,101.914144" id="Stroke-13"></path>
                <path d="M101.91421,101.914276 L79.073768,79.0744972" id="Stroke-15"></path>
                <path d="M40.3257017,40.3260994 L17.4859227,17.4856575" id="Stroke-17"></path>
            </g>
        </g>
    </g>
</svg>