<?xml version="1.0" encoding="UTF-8"?>
<svg xmlns:xlink="http://www.w3.org/1999/xlink" width="186px" height="25px" viewBox="0 0 186 25" version="1.1"
     xmlns="http://www.w3.org/2000/svg">
    <!-- Generator: sketchtool 51.3 (57544) - http://www.bohemiancoding.com/sketch -->
    <title>FFDDBD55-6524-4608-9060-2CE86EF0E161</title>
    <desc>Created with sketchtool.</desc>
    <defs></defs>
    <g id="Symbols" stroke="none" stroke-width="1" fill="none" fill-rule="evenodd">
        <g id="gorizont" stroke="#000000" stroke-width="2">
            <g id="Group-16" transform="translate(3.000000, 2.000000)">
                <path d="M70,20 C70,9.01684869 78.9036192,0.113116414 89.8868836,0.113116414 C100.870035,0.113116414 109.773654,9.01684869 109.773654,20"
                      id="Page-1" stroke-linejoin="round"></path>
                <path d="M0,21 L180,21" id="Path-2" stroke-linecap="round"></path>
            </g>
        </g>
    </g>
</svg>