<?xml version="1.0" encoding="UTF-8"?>
<svg xmlns:xlink="http://www.w3.org/1999/xlink" width="117px" height="117px" viewBox="0 0 117 117" version="1.1"
     xmlns="http://www.w3.org/2000/svg">
    <!-- Generator: sketchtool 51.3 (57544) - http://www.bohemiancoding.com/sketch -->
    <title>980B9471-A08F-4D52-A7CC-9F7CCDAE2571</title>
    <desc>Created with sketchtool.</desc>
    <defs></defs>
    <g id="Symbols" stroke="none" stroke-width="1" fill="none" fill-rule="evenodd">
        <g id="kvadrat" stroke="#000000" stroke-width="2">
            <g id="Group-12" transform="translate(4.000000, 4.000000)">
                <rect id="Rectangle-11" x="1" y="1" width="108" height="108"></rect>
                <rect id="Rectangle-11-Copy" x="8.04" y="8.04" width="94.8" height="94.8"></rect>
            </g>
        </g>
    </g>
</svg>