<?xml version="1.0" encoding="UTF-8"?>
<svg width="26px" height="26px" viewBox="0 0 26 26" version="1.1" xmlns="http://www.w3.org/2000/svg" xmlns:xlink="http://www.w3.org/1999/xlink">
    <!-- Generator: sketchtool 51.3 (57544) - http://www.bohemiancoding.com/sketch -->
    <title>3FA965AD-4C75-47C7-916D-E5206B3711D2</title>
    <desc>Created with sketchtool.</desc>
    <defs></defs>
    <g id="Symbols" stroke="none" stroke-width="1" fill="none" fill-rule="evenodd" stroke-linecap="round">
        <g id="strelka-prava" stroke="#000" stroke-width="2">
            <g id="Group-18" transform="translate(2.000000, 3.000000)">
                <polyline id="Stroke-1" stroke-linejoin="round" points="12 0 22 10.0002405 12 20"></polyline>
                <path d="M-6.9388939e-17,10 L20,10" id="Stroke-3"></path>
            </g>
        </g>
    </g>
</svg>