<?xml version="1.0" encoding="UTF-8"?>
<svg xmlns:xlink="http://www.w3.org/1999/xlink" width="25px" height="26px" viewBox="0 0 25 26" version="1.1"
     xmlns="http://www.w3.org/2000/svg">
    <!-- Generator: sketchtool 51.3 (57544) - http://www.bohemiancoding.com/sketch -->
    <title>CD0E9F8F-2E37-42A1-8C37-8FAC60732F0E</title>
    <desc>Created with sketchtool.</desc>
    <defs>
        <linearGradient x1="50.0188657%" y1="99.4190972%" x2="50.0188657%" y2="0.472800926%" id="linearGradient-1">
            <stop stop-color="#3300FF" offset="0%"></stop>
            <stop stop-color="#33AAFF" offset="99.97%"></stop>
        </linearGradient>
    </defs>
    <g id="Symbols" stroke="none" stroke-width="1" fill="none" fill-rule="evenodd">
        <g id="fb" fill-rule="nonzero">
            <g id="Group-19">
                <g id="Group">
                    <path d="M13.1130435,25.123913 C6.38695652,25.123913 0.904347826,19.6413043 0.904347826,12.9152174 C0.904347826,6.18913043 6.38695652,0.706521739 13.1130435,0.706521739 C19.8391304,0.706521739 25.3217391,6.18913043 25.3217391,12.9152174 C25.3217391,19.6413043 19.8391304,25.123913 13.1130435,25.123913 Z"
                          id="Shape" fill="url(#linearGradient-1)"></path>
                    <path d="M13.1130435,1.41304348 C19.4717391,1.41304348 24.6152174,6.55652174 24.6152174,12.9152174 C24.6152174,19.273913 19.4717391,24.4173913 13.1130435,24.4173913 C6.75434783,24.4173913 1.61086957,19.273913 1.61086957,12.9152174 C1.61086957,6.55652174 6.75434783,1.41304348 13.1130435,1.41304348 Z M13.1130435,0 C5.99130435,0 0.197826087,5.79347826 0.197826087,12.9152174 C0.197826087,20.0369565 5.99130435,25.8304348 13.1130435,25.8304348 C20.2347826,25.8304348 26.0282609,20.0369565 26.0282609,12.9152174 C26.0282609,5.79347826 20.2347826,0 13.1130435,0 Z"
                          id="Shape" fill="#FFFFFF"></path>
                </g>
                <path d="M11.0586957,20.4608696 L13.9978261,20.4608696 L13.9978261,13.0847826 L16.0608696,13.0847826 L16.2869565,10.5978261 L13.9978261,10.5978261 C13.9978261,10.5978261 13.9978261,9.66521739 13.9978261,9.18478261 C13.9978261,8.59130435 14.1108696,8.36521739 14.676087,8.36521739 C15.1282609,8.36521739 16.2869565,8.36521739 16.2869565,8.36521739 L16.2869565,5.79347826 C16.2869565,5.79347826 14.5913043,5.79347826 14.2521739,5.79347826 C12.0478261,5.79347826 11.0586957,6.75434783 11.0586957,8.61956522 C11.0586957,10.2304348 11.0586957,10.5978261 11.0586957,10.5978261 L9.5326087,10.5978261 L9.5326087,13.1130435 L11.0586957,13.1130435 L11.0586957,20.4608696 Z"
                      id="Shape" fill="#FFFFFF"></path>
            </g>
        </g>
    </g>
</svg>