<?xml version="1.0" encoding="UTF-8"?>
<svg xmlns:xlink="http://www.w3.org/1999/xlink" width="23px" height="23px" viewBox="0 0 23 23" version="1.1"
     xmlns="http://www.w3.org/2000/svg">
    <!-- Generator: sketchtool 51.3 (57544) - http://www.bohemiancoding.com/sketch -->
    <title>573F3AA6-C3DC-46B9-B29E-DD2E91334B0B</title>
    <desc>Created with sketchtool.</desc>
    <defs>
        <linearGradient x1="50%" y1="-46.163583%" x2="50%" y2="120.176828%" id="linearGradient-1">
            <stop stop-color="#E96AE1" offset="0%"></stop>
            <stop stop-color="#557BED" offset="100%"></stop>
        </linearGradient>
    </defs>
    <g id="Symbols" stroke="none" stroke-width="1" fill="none" fill-rule="evenodd">
        <g id="dob-menu" fill="url(#linearGradient-1)">
            <path d="M5,3 L8,3 C9.1045695,3 10,3.8954305 10,5 L10,8 C10,9.1045695 9.1045695,10 8,10 L5,10 C3.8954305,10 3,9.1045695 3,8 L3,5 C3,3.8954305 3.8954305,3 5,3 Z M5,13 L8,13 C9.1045695,13 10,13.8954305 10,15 L10,18 C10,19.1045695 9.1045695,20 8,20 L5,20 C3.8954305,20 3,19.1045695 3,18 L3,15 C3,13.8954305 3.8954305,13 5,13 Z M15,3 L18,3 C19.1045695,3 20,3.8954305 20,5 L20,8 C20,9.1045695 19.1045695,10 18,10 L15,10 C13.8954305,10 13,9.1045695 13,8 L13,5 C13,3.8954305 13.8954305,3 15,3 Z M15,13 L18,13 C19.1045695,13 20,13.8954305 20,15 L20,18 C20,19.1045695 19.1045695,20 18,20 L15,20 C13.8954305,20 13,19.1045695 13,18 L13,15 C13,13.8954305 13.8954305,13 15,13 Z"
                  id="Combined-Shape"
                  transform="translate(11.500000, 11.500000) rotate(45.000000) translate(-11.500000, -11.500000) "></path>
        </g>
    </g>
</svg>